<?xml version="1.0" encoding="utf-8" ?>
<COLLADA xmlns="http://www.collada.org/2005/11/COLLADASchema" version="1.4.1">
    <asset>
        <contributor>
            <author>Torque3D MIT User</author>
            <authoring_tool>Torque 3D MIT 3.9.0 Object Exporter</authoring_tool>
        </contributor>
        <created>2017-01-23 06:08:10</created>
        <modified>2017-01-23 06:08:10</modified>
        <unit name="meter" meter="1" />
        <up_axis>Z_UP</up_axis>
    </asset>
    <library_images>
        <image id="MatLab_mappedMat" name="MatLab_mappedMat">
            <init_from>file://tlab/art/assets/matEd_dirtyMat</init_from>
        </image>
    </library_images>
    <library_effects>
        <effect id="MatLab_mappedMat-effect" name="MatLab_mappedMat-effect">
            <profile_COMMON>
                <newparam sid="MatLab_mappedMat-surface">
                    <surface type="2D">
                        <init_from>MatLab_mappedMat</init_from>
                        <format>A8R8G8B8</format>
                    </surface>
                </newparam>
                <newparam sid="MatLab_mappedMat-sampler">
                    <sampler2D>
                        <source>MatLab_mappedMat-surface</source>
                    </sampler2D>
                </newparam>
                <technique sid="common">
                    <blinn>
                        <emission>
                            <color sid="emission">0.0 0.0 0.0 1.0</color>
                        </emission>
                        <ambient>
                            <color sid="ambient">0.0 0.0 0.0 1.0</color>
                        </ambient>
                        <diffuse>
                            <texture texture="MatLab_mappedMat-sampler" texcoord="UVMap">
                                <extra>
                                    <technique profile="MAYA">
                                        <wrapU sid="wrapU0">TRUE</wrapU>
                                        <wrapV sid="wrapV0">TRUE</wrapV>
                                        <blend_mode>ADD</blend_mode>
                                    </technique>
                                </extra>
                            </texture>
                        </diffuse>
                        <specular>
                            <color sid="specular">0.5 0.5 0.5 1.0</color>
                        </specular>
                        <shininess>
                            <float sid="shininess">1.0</float>
                        </shininess>
                        <reflective>
                            <color sid="reflective">0.0 0.0 0.0 1.0</color>
                        </reflective>
                        <reflectivity>
                            <float sid="reflectivity">0.5</float>
                        </reflectivity>
                        <transparent opaque="RGB_ZERO">
                            <color sid="transparent">0.0 0.0 0.0 1.0</color>
                        </transparent>
                        <transparency>
                            <float sid="transparency">0.0</float>
                        </transparency>
                        <index_of_refraction>
                            <float sid="index_of_refraction">1</float>
                        </index_of_refraction>
                    </blinn>
                </technique>
            </profile_COMMON>
        </effect>
    </library_effects>
    <library_materials>
        <material id="MatLab_mappedMat-material" name="MatLab_mappedMat">
            <instance_effect url="#MatLab_mappedMat-effect" />
        </material>
    </library_materials>
    <library_geometries>
        <geometry id="tlabCubeMap_Cylinder-mesh" name="tlabCubeMap_Cylinder">
            <mesh>
                <source id="tlabCubeMap_Cylinder-mesh-positions">
                    <float_array id="tlabCubeMap_Cylinder-mesh-positions-array" count="126">0.0051 -0.0063 -1.5325 1.5136 -0.0063 -1.5325 1.4398 0.4598 -1.5325 1.2255 0.8804 -1.5325 0.8918 1.2141 -1.5325 0.4712 1.4284 -1.5325 0.0051 1.5022 -1.5325 -0.4611 1.4284 -1.5325 -0.8816 1.2141 -1.5325 -1.2153 0.8804 -1.5325 -1.4296 0.4598 -1.5325 -1.5034 -0.0063 -1.5325 -1.4296 -0.4725 -1.5325 -1.2153 -0.8930 -1.5325 -0.8816 -1.2267 -1.5325 -0.4611 -1.4410 -1.5325 0.0051 -1.5148 -1.5325 0.4712 -1.4410 -1.5325 0.8918 -1.2267 -1.5325 1.2255 -0.8930 -1.5325 1.4398 -0.4725 -1.5325 1.5136 -0.0063 1.5399 1.4398 0.4598 1.5399 1.2255 0.8804 1.5399 0.8918 1.2141 1.5399 0.4712 1.4284 1.5399 0.0051 1.5022 1.5399 -0.4611 1.4284 1.5399 -0.8816 1.2141 1.5399 -1.2153 0.8804 1.5399 -1.4296 0.4598 1.5399 -1.5034 -0.0063 1.5399 -1.4296 -0.4725 1.5399 -1.2153 -0.8930 1.5399 -0.8816 -1.2267 1.5399 -0.4611 -1.4410 1.5399 0.0051 -1.5148 1.5399 0.4712 -1.4410 1.5399 0.8918 -1.2267 1.5399 1.2255 -0.8930 1.5399 1.4398 -0.4725 1.5399 0.0051 -0.0063 1.5399 
                    </float_array>
                    <technique_common>
                        <accessor source="#tlabCubeMap_Cylinder-mesh-positions-array" count="42" stride="3">
                            <param name="X" type="float" />
                            <param name="Y" type="float" />
                            <param name="Z" type="float" />
                        </accessor>
                    </technique_common>
                </source>
                <source id="tlabCubeMap_Cylinder-mesh-normals">
                    <float_array id="tlabCubeMap_Cylinder-mesh-normals-array" count="126">0.0000 0.0000 -1.0000 0.9986 0.0527 0.0000 0.9986 -0.0527 0.0000 0.9660 0.2584 0.0000 0.9334 0.3587 0.0000 0.8389 0.5443 0.0000 0.7769 0.6296 0.0000 0.6296 0.7769 0.0000 0.5443 0.8389 0.0000 0.3587 0.9334 -0.0000 0.2584 0.9660 -0.0000 0.0527 0.9986 -0.0000 -0.0527 0.9986 0.0000 -0.2584 0.9660 0.0000 -0.3587 0.9334 0.0000 -0.5443 0.8389 0.0000 -0.6296 0.7769 0.0000 -0.7769 0.6296 0.0000 -0.8389 0.5443 -0.0000 -0.9334 0.3587 -0.0000 -0.9660 0.2584 -0.0000 -0.9986 0.0527 -0.0000 -0.9986 -0.0527 -0.0000 -0.9660 -0.2584 -0.0000 -0.9334 -0.3587 -0.0000 -0.8389 -0.5443 -0.0000 -0.7769 -0.6296 0.0000 -0.6296 -0.7769 0.0000 -0.5443 -0.8389 -0.0000 -0.3587 -0.9334 -0.0000 -0.2584 -0.9660 -0.0000 -0.0527 -0.9986 0.0000 0.0527 -0.9986 0.0000 0.2584 -0.9660 0.0000 0.3587 -0.9334 -0.0000 0.5443 -0.8389 -0.0000 0.6296 -0.7769 -0.0000 0.7769 -0.6296 -0.0000 0.8389 -0.5443 0.0000 0.9334 -0.3587 0.0000 0.9660 -0.2584 0.0000 0.0000 0.0000 1.0000 
                    </float_array>
                    <technique_common>
                        <accessor source="#tlabCubeMap_Cylinder-mesh-normals-array" count="42" stride="3">
                            <param name="X" type="float" />
                            <param name="Y" type="float" />
                            <param name="Z" type="float" />
                        </accessor>
                    </technique_common>
                </source>
                <source id="tlabCubeMap_Cylinder-mesh-map-0">
                    <float_array id="tlabCubeMap_Cylinder-mesh-map-0-array" count="126">0.5000 0.5000 0.9995 0.5000 0.9751 0.6544 0.9041 0.7936 0.7936 0.9041 0.6544 0.9751 0.5000 0.9995 0.3456 0.9751 0.2064 0.9041 0.0959 0.7936 0.0249 0.6544 0.0005 0.5000 0.0249 0.3456 0.0959 0.2064 0.2064 0.0959 0.3456 0.0249 0.5000 0.0005 0.6544 0.0249 0.7936 0.0959 0.9041 0.2064 0.9751 0.3456 0.7500 0.0000 0.7500 1.0000 0.8000 1.0000 0.8000 0.0000 0.8500 1.0000 0.8500 0.0000 0.9000 1.0000 0.9000 0.0000 0.9500 1.0000 0.9500 0.0000 -0.0500 0.0000 -0.0500 1.0000 0.0000 1.0000 0.0000 0.0000 0.0500 1.0000 0.0500 0.0000 0.1000 1.0000 0.1000 0.0000 0.1500 1.0000 0.1500 0.0000 0.2000 1.0000 0.2000 0.0000 0.2500 1.0000 0.2500 0.0000 0.3000 1.0000 0.3000 0.0000 0.3500 1.0000 0.3500 0.0000 0.4000 1.0000 0.4000 0.0000 0.4500 1.0000 0.4500 0.0000 0.5000 1.0000 0.5000 0.0000 0.5500 1.0000 0.5500 0.0000 0.6000 1.0000 0.6000 0.0000 0.6500 1.0000 0.6500 0.0000 0.7000 1.0000 0.7000 0.0000 
                    </float_array>
                    <technique_common>
                        <accessor source="#tlabCubeMap_Cylinder-mesh-map-0-array" count="63" stride="2">
                            <param name="S" type="float" />
                            <param name="T" type="float" />
                        </accessor>
                    </technique_common>
                </source>
                <vertices id="tlabCubeMap_Cylinder-mesh-vertices">
                    <input semantic="POSITION" source="#tlabCubeMap_Cylinder-mesh-positions" />
                </vertices>
                <triangles material="MatLab_mappedMat-material" count="80">
                    <input semantic="VERTEX" source="#tlabCubeMap_Cylinder-mesh-vertices" offset="0" />
                    <input semantic="NORMAL" source="#tlabCubeMap_Cylinder-mesh-normals" offset="1" />
                    <input semantic="TEXCOORD" source="#tlabCubeMap_Cylinder-mesh-map-0" offset="2" set="0" />
                    <p>1 0 1 0 0 0 2 0 2 20 0 20 0 0 0 1 0 1 19 0 19 0 0 0 20 0 20 18 0 18 0 0 0 19 0 19 17 0 17 0 0 0 18 0 18 16 0 16 0 0 0 17 0 17 15 0 15 0 0 0 16 0 16 14 0 14 0 0 0 15 0 15 13 0 13 0 0 0 14 0 14 12 0 12 0 0 0 13 0 13 11 0 11 0 0 0 12 0 12 10 0 10 0 0 0 11 0 11 9 0 9 0 0 0 10 0 10 8 0 8 0 0 0 9 0 9 7 0 7 0 0 0 8 0 8 6 0 6 0 0 0 7 0 7 5 0 5 0 0 0 6 0 6 4 0 4 0 0 0 5 0 5 3 0 3 0 0 0 4 0 4 2 0 2 0 0 0 3 0 3 21 2 22 1 1 21 22 3 23 20 40 62 1 1 21 21 2 22 40 39 61 20 40 62 21 2 22 19 38 60 20 40 62 40 39 61 39 37 59 19 38 60 40 39 61 18 36 58 19 38 60 39 37 59 38 35 57 18 36 58 39 37 59 17 34 56 18 36 58 38 35 57 37 33 55 17 34 56 38 35 57 16 32 54 17 34 56 37 33 55 36 31 53 16 32 54 37 33 55 15 30 52 16 32 54 36 31 53 35 29 51 15 30 52 36 31 53 14 28 50 15 30 52 35 29 51 34 27 49 14 28 50 35 29 51 13 26 48 14 28 50 34 27 49 33 25 47 13 26 48 34 27 49 12 24 46 13 26 48 33 25 47 32 23 45 12 24 46 33 25 47 11 22 44 12 24 46 32 23 45 31 21 43 11 22 44 32 23 45 10 20 42 11 22 44 31 21 43 30 19 41 10 20 42 31 21 43 9 18 40 10 20 42 30 19 41 29 17 39 9 18 40 30 19 41 8 16 38 9 18 40 29 17 39 28 15 37 8 16 38 29 17 39 7 14 36 8 16 38 28 15 37 27 13 35 7 14 36 28 15 37 6 12 34 7 14 36 27 13 35 26 11 33 6 12 34 27 13 35 5 10 31 6 12 34 26 11 33 25 9 32 5 10 31 26 11 33 2 4 24 22 3 23 1 1 21 23 5 25 22 3 23 2 4 24 3 6 26 23 5 25 2 4 24 24 7 27 23 5 25 3 6 26 4 8 28 24 7 27 3 6 26 25 9 29 24 7 27 4 8 28 5 10 30 25 9 29 4 8 28 22 41 2 41 41 0 21 41 1 23 41 3 41 41 0 22 41 2 24 41 4 41 41 0 23 41 3 25 41 5 41 41 0 24 41 4 26 41 6 41 41 0 25 41 5 27 41 7 41 41 0 26 41 6 28 41 8 41 41 0 27 41 7 29 41 9 41 41 0 28 41 8 30 41 10 41 41 0 29 41 9 31 41 11 41 41 0 30 41 10 32 41 12 41 41 0 31 41 11 33 41 13 41 41 0 32 41 12 34 41 14 41 41 0 33 41 13 35 41 15 41 41 0 34 41 14 36 41 16 41 41 0 35 41 15 37 41 17 41 41 0 36 41 16 38 41 18 41 41 0 37 41 17 39 41 19 41 41 0 38 41 18 40 41 20 41 41 0 39 41 19 21 41 1 41 41 0 40 41 20 
                    </p>
                </triangles>
            </mesh>
        </geometry>
        <extra>
            <technique profile="OpenCOLLADAMaya">
                <originalMayaNodeId sid="originalMayaNodeId">tlabCubeMap_Cylinder</originalMayaNodeId>
                <double_sided sid="double_sided">1</double_sided>
                <param sid="colladaId" type="string">tlabCubeMap_Cylinder-mesh</param>
            </technique>
        </extra>
    </library_geometries>
    <library_visual_scenes>
        <visual_scene id="RootNode" name="RootNode">
            <node id="tlabCubeMap_Cylinder" name="tlabCubeMap_Cylinder" type="NODE">
                <instance_geometry url="#tlabCubeMap_Cylinder-mesh" name="tlabCubeMap_Cylinder">
                    <bind_material>
                        <technique_common>
                            <instance_material symbol="MatLab_mappedMat-material" target="#MatLab_mappedMat-material">
                                <bind_vertex_input semantic="UVMap" input_semantic="TEXCOORD" input_set="0" />
                            </instance_material>
                        </technique_common>
                    </bind_material>
                </instance_geometry>
                <extra>
                    <technique profile="OpenCOLLADA">
                        <cast_shadows sid="cast_shadows" type="bool">1</cast_shadows>
                        <receive_shadows sid="receive_shadows" type="bool">1</receive_shadows>
                        <primary_visibility sid="primary_visibility" type="int">1</primary_visibility>
                        <secondary_visibility sid="secondary_visibility" type="int">1</secondary_visibility>
                    </technique>
                </extra>
                <extra>
                    <technique profile="OpenCOLLADAMaya">
                        <originalMayaNodeId sid="originalMayaNodeId" type="string">tlabCubeMap_Cylinder</originalMayaNodeId>
                        <param sid="colladaId" type="string">tlabCubeMap_Cylinder</param>
                    </technique>
                </extra>
            </node>
        </visual_scene>
    </library_visual_scenes>
    <scene>
        <instance_visual_scene url="#RootNode" />
    </scene>
</COLLADA>
