<?xml version="1.0" encoding="utf-8" ?>
<COLLADA xmlns="http://www.collada.org/2005/11/COLLADASchema" version="1.4.1">
    <asset>
        <contributor>
            <author>Torque3D MIT User</author>
            <authoring_tool>Torque 3D MIT 3.9.0 Object Exporter</authoring_tool>
        </contributor>
        <created>2017-01-23 06:08:16</created>
        <modified>2017-01-23 06:08:16</modified>
        <unit name="meter" meter="1" />
        <up_axis>Z_UP</up_axis>
    </asset>
    <library_images>
        <image id="MatLab_mappedMat" name="MatLab_mappedMat">
            <init_from>file://tlab/art/assets/matEd_dirtyMat</init_from>
        </image>
    </library_images>
    <library_effects>
        <effect id="MatLab_mappedMat-effect" name="MatLab_mappedMat-effect">
            <profile_COMMON>
                <newparam sid="MatLab_mappedMat-surface">
                    <surface type="2D">
                        <init_from>MatLab_mappedMat</init_from>
                        <format>A8R8G8B8</format>
                    </surface>
                </newparam>
                <newparam sid="MatLab_mappedMat-sampler">
                    <sampler2D>
                        <source>MatLab_mappedMat-surface</source>
                    </sampler2D>
                </newparam>
                <technique sid="common">
                    <blinn>
                        <emission>
                            <color sid="emission">0.0 0.0 0.0 1.0</color>
                        </emission>
                        <ambient>
                            <color sid="ambient">0.0 0.0 0.0 1.0</color>
                        </ambient>
                        <diffuse>
                            <texture texture="MatLab_mappedMat-sampler" texcoord="UVMap">
                                <extra>
                                    <technique profile="MAYA">
                                        <wrapU sid="wrapU0">TRUE</wrapU>
                                        <wrapV sid="wrapV0">TRUE</wrapV>
                                        <blend_mode>ADD</blend_mode>
                                    </technique>
                                </extra>
                            </texture>
                        </diffuse>
                        <specular>
                            <color sid="specular">0.5 0.5 0.5 1.0</color>
                        </specular>
                        <shininess>
                            <float sid="shininess">1.0</float>
                        </shininess>
                        <reflective>
                            <color sid="reflective">0.0 0.0 0.0 1.0</color>
                        </reflective>
                        <reflectivity>
                            <float sid="reflectivity">0.5</float>
                        </reflectivity>
                        <transparent opaque="RGB_ZERO">
                            <color sid="transparent">0.0 0.0 0.0 1.0</color>
                        </transparent>
                        <transparency>
                            <float sid="transparency">0.0</float>
                        </transparency>
                        <index_of_refraction>
                            <float sid="index_of_refraction">1</float>
                        </index_of_refraction>
                    </blinn>
                </technique>
            </profile_COMMON>
        </effect>
    </library_effects>
    <library_materials>
        <material id="MatLab_mappedMat-material" name="MatLab_mappedMat">
            <instance_effect url="#MatLab_mappedMat-effect" />
        </material>
    </library_materials>
    <library_geometries>
        <geometry id="tlabCubeMap_Cube-mesh" name="tlabCubeMap_Cube">
            <mesh>
                <source id="tlabCubeMap_Cube-mesh-positions">
                    <float_array id="tlabCubeMap_Cube-mesh-positions-array" count="24">-1.6615 1.6969 0.0365 1.6915 1.6972 3.3694 -1.6615 1.6972 3.3694 1.6915 1.6969 0.0365 -1.6615 -1.6757 0.0367 1.6915 -1.6755 3.3696 1.6915 -1.6757 0.0367 -1.6615 -1.6755 3.3696 
                    </float_array>
                    <technique_common>
                        <accessor source="#tlabCubeMap_Cube-mesh-positions-array" count="8" stride="3">
                            <param name="X" type="float" />
                            <param name="Y" type="float" />
                            <param name="Z" type="float" />
                        </accessor>
                    </technique_common>
                </source>
                <source id="tlabCubeMap_Cube-mesh-normals">
                    <float_array id="tlabCubeMap_Cube-mesh-normals-array" count="18">0.0000 0.9999 -0.0001 -0.0000 -0.9999 0.0001 0.0000 -0.0001 -0.9999 1.0000 0.0000 0.0000 -0.0000 0.0001 0.9999 -1.0000 0.0000 0.0000 
                    </float_array>
                    <technique_common>
                        <accessor source="#tlabCubeMap_Cube-mesh-normals-array" count="6" stride="3">
                            <param name="X" type="float" />
                            <param name="Y" type="float" />
                            <param name="Z" type="float" />
                        </accessor>
                    </technique_common>
                </source>
                <source id="tlabCubeMap_Cube-mesh-map-0">
                    <float_array id="tlabCubeMap_Cube-mesh-map-0-array" count="8">1.0000 0.0000 0.0000 1.0000 1.0000 1.0000 0.0000 0.0000 
                    </float_array>
                    <technique_common>
                        <accessor source="#tlabCubeMap_Cube-mesh-map-0-array" count="4" stride="2">
                            <param name="S" type="float" />
                            <param name="T" type="float" />
                        </accessor>
                    </technique_common>
                </source>
                <vertices id="tlabCubeMap_Cube-mesh-vertices">
                    <input semantic="POSITION" source="#tlabCubeMap_Cube-mesh-positions" />
                </vertices>
                <triangles material="MatLab_mappedMat-material" count="12">
                    <input semantic="VERTEX" source="#tlabCubeMap_Cube-mesh-vertices" offset="0" />
                    <input semantic="NORMAL" source="#tlabCubeMap_Cube-mesh-normals" offset="1" />
                    <input semantic="TEXCOORD" source="#tlabCubeMap_Cube-mesh-map-0" offset="2" set="0" />
                    <p>1 0 1 0 0 0 2 0 2 3 0 3 0 0 0 1 0 1 5 1 2 4 1 3 6 1 0 7 1 1 4 1 3 5 1 2 6 2 2 0 2 3 3 2 0 4 2 1 0 2 3 6 2 2 5 3 2 3 3 3 1 3 0 6 3 1 3 3 3 5 3 2 7 4 2 1 4 3 2 4 0 5 4 1 1 4 3 7 4 2 4 5 2 2 5 3 0 5 0 7 5 1 2 5 3 4 5 2 
                    </p>
                </triangles>
            </mesh>
        </geometry>
        <extra>
            <technique profile="OpenCOLLADAMaya">
                <originalMayaNodeId sid="originalMayaNodeId">tlabCubeMap_Cube</originalMayaNodeId>
                <double_sided sid="double_sided">1</double_sided>
                <param sid="colladaId" type="string">tlabCubeMap_Cube-mesh</param>
            </technique>
        </extra>
    </library_geometries>
    <library_visual_scenes>
        <visual_scene id="RootNode" name="RootNode">
            <node id="tlabCubeMap_Cube" name="tlabCubeMap_Cube" type="NODE">
                <instance_geometry url="#tlabCubeMap_Cube-mesh" name="tlabCubeMap_Cube">
                    <bind_material>
                        <technique_common>
                            <instance_material symbol="MatLab_mappedMat-material" target="#MatLab_mappedMat-material">
                                <bind_vertex_input semantic="UVMap" input_semantic="TEXCOORD" input_set="0" />
                            </instance_material>
                        </technique_common>
                    </bind_material>
                </instance_geometry>
                <extra>
                    <technique profile="OpenCOLLADA">
                        <cast_shadows sid="cast_shadows" type="bool">1</cast_shadows>
                        <receive_shadows sid="receive_shadows" type="bool">1</receive_shadows>
                        <primary_visibility sid="primary_visibility" type="int">1</primary_visibility>
                        <secondary_visibility sid="secondary_visibility" type="int">1</secondary_visibility>
                    </technique>
                </extra>
                <extra>
                    <technique profile="OpenCOLLADAMaya">
                        <originalMayaNodeId sid="originalMayaNodeId" type="string">tlabCubeMap_Cube</originalMayaNodeId>
                        <param sid="colladaId" type="string">tlabCubeMap_Cube</param>
                    </technique>
                </extra>
            </node>
        </visual_scene>
    </library_visual_scenes>
    <scene>
        <instance_visual_scene url="#RootNode" />
    </scene>
</COLLADA>
